{
  "$id": "main-schema.json",
  "type": "object",
  "properties": {
    "date": {
      "$ref": "date-str.json"
    },
    "week": {
      "$ref": "week-str.json"
    },
    "spielplan": {
      "$ref": "spielplan.json"
    },
    "spielplanPerWeek": {
      "$ref": "spielplan-per-week.json"
    },
    "spielplaenePerWeek": {
      "$ref": "spielplaene-per-week.json"
    },
    "detail": {
      "$ref": "detail.json"
    }
  },
  "additionalProperties": false
}
